[
    {
        "inputs": [
            {
                "internalType": "address",
                "name": "_erc20",
                "type": "address"
            },
            {
                "internalType": "address",
                "name": "_defaultRewardToken",
                "type": "address"
            },
            {
                "components": [
                    {
                        "internalType": "uint256",
                        "name": "period",
                        "type": "uint256"
                    },
                    {
                        "internalType": "uint256",
                        "name": "rewardPercent",
                        "type": "uint256"
                    }
                ],
                "internalType": "struct WrapperFarming.RewardSettings[]",
                "name": "_settings",
                "type": "tuple[]"
            }
        ],
        "name": "constructor",
        "stateMutability": "nonpayable",
        "type": "constructor"
    },
    {
        "anonymous": false,
        "inputs": [
            {
                "indexed": true,
                "internalType": "address",
                "name": "owner",
                "type": "address"
            },
            {
                "indexed": true,
                "internalType": "address",
                "name": "approved",
                "type": "address"
            },
            {
                "indexed": true,
                "internalType": "uint256",
                "name": "tokenId",
                "type": "uint256"
            }
        ],
        "name": "Approval",
        "type": "event"
    },
    {
        "anonymous": false,
        "inputs": [
            {
                "indexed": true,
                "internalType": "address",
                "name": "owner",
                "type": "address"
            },
            {
                "indexed": true,
                "internalType": "address",
                "name": "operator",
                "type": "address"
            },
            {
                "indexed": false,
                "internalType": "bool",
                "name": "approved",
                "type": "bool"
            }
        ],
        "name": "ApprovalForAll",
        "type": "event"
    },
    {
        "anonymous": false,
        "inputs": [
            {
                "indexed": false,
                "internalType": "address",
                "name": "erc20",
                "type": "address"
            },
            {
                "indexed": false,
                "internalType": "bool",
                "name": "newStatus",
                "type": "bool"
            }
        ],
        "name": "CollateralStatusChanged",
        "type": "event"
    },
    {
        "anonymous": false,
        "inputs": [
            {
                "indexed": false,
                "internalType": "uint256",
                "name": "tokenId",
                "type": "uint256"
            },
            {
                "indexed": false,
                "internalType": "address",
                "name": "farmingToken",
                "type": "address"
            },
            {
                "indexed": false,
                "internalType": "uint256",
                "name": "amount",
                "type": "uint256"
            }
        ],
        "name": "Harvest",
        "type": "event"
    },
    {
        "anonymous": false,
        "inputs": [
            {
                "indexed": false,
                "internalType": "uint256",
                "name": "oldValue",
                "type": "uint256"
            },
            {
                "indexed": false,
                "internalType": "uint256",
                "name": "newValue",
                "type": "uint256"
            }
        ],
        "name": "MaxCollateralCountChanged",
        "type": "event"
    },
    {
        "anonymous": false,
        "inputs": [
            {
                "indexed": false,
                "internalType": "uint256",
                "name": "feeAmount",
                "type": "uint256"
            },
            {
                "indexed": false,
                "internalType": "uint256",
                "name": "startDate",
                "type": "uint256"
            }
        ],
        "name": "NewFee",
        "type": "event"
    },
    {
        "anonymous": false,
        "inputs": [
            {
                "indexed": true,
                "internalType": "uint256",
                "name": "wrappedTokenId",
                "type": "uint256"
            },
            {
                "indexed": true,
                "internalType": "address",
                "name": "royaltyBeneficiary",
                "type": "address"
            },
            {
                "indexed": false,
                "internalType": "uint256",
                "name": "transferFee",
                "type": "uint256"
            },
            {
                "indexed": false,
                "internalType": "uint256",
                "name": "royalty",
                "type": "uint256"
            },
            {
                "indexed": false,
                "internalType": "address",
                "name": "feeToken",
                "type": "address"
            }
        ],
        "name": "NiftsyProtocolTransfer",
        "type": "event"
    },
    {
        "anonymous": false,
        "inputs": [
            {
                "indexed": true,
                "internalType": "address",
                "name": "previousOwner",
                "type": "address"
            },
            {
                "indexed": true,
                "internalType": "address",
                "name": "newOwner",
                "type": "address"
            }
        ],
        "name": "OwnershipTransferred",
        "type": "event"
    },
    {
        "anonymous": false,
        "inputs": [
            {
                "indexed": false,
                "internalType": "uint256",
                "name": "wrappedId",
                "type": "uint256"
            },
            {
                "indexed": false,
                "internalType": "address",
                "name": "owner",
                "type": "address"
            }
        ],
        "name": "PartialUnWrapp",
        "type": "event"
    },
    {
        "anonymous": false,
        "inputs": [
            {
                "indexed": false,
                "internalType": "address",
                "name": "farmingToken",
                "type": "address"
            },
            {
                "indexed": false,
                "internalType": "uint256",
                "name": "slotId",
                "type": "uint256"
            }
        ],
        "name": "SettingsChanged",
        "type": "event"
    },
    {
        "anonymous": false,
        "inputs": [
            {
                "indexed": false,
                "internalType": "uint256",
                "name": "tokenId",
                "type": "uint256"
            },
            {
                "indexed": false,
                "internalType": "address",
                "name": "farmingToken",
                "type": "address"
            },
            {
                "indexed": false,
                "internalType": "uint256",
                "name": "amount",
                "type": "uint256"
            }
        ],
        "name": "Staked",
        "type": "event"
    },
    {
        "anonymous": false,
        "inputs": [
            {
                "indexed": false,
                "internalType": "address",
                "name": "failERC20",
                "type": "address"
            },
            {
                "indexed": false,
                "internalType": "uint256",
                "name": "amount",
                "type": "uint256"
            }
        ],
        "name": "SuspiciousFail",
        "type": "event"
    },
    {
        "anonymous": false,
        "inputs": [
            {
                "indexed": true,
                "internalType": "address",
                "name": "from",
                "type": "address"
            },
            {
                "indexed": true,
                "internalType": "address",
                "name": "to",
                "type": "address"
            },
            {
                "indexed": true,
                "internalType": "uint256",
                "name": "tokenId",
                "type": "uint256"
            }
        ],
        "name": "Transfer",
        "type": "event"
    },
    {
        "anonymous": false,
        "inputs": [
            {
                "indexed": true,
                "internalType": "uint256",
                "name": "wrappedId",
                "type": "uint256"
            },
            {
                "indexed": true,
                "internalType": "address",
                "name": "owner",
                "type": "address"
            },
            {
                "indexed": false,
                "internalType": "uint256",
                "name": "nativeCollateralAmount",
                "type": "uint256"
            },
            {
                "indexed": false,
                "internalType": "uint256",
                "name": "feeAmount",
                "type": "uint256"
            }
        ],
        "name": "UnWrapped",
        "type": "event"
    },
    {
        "anonymous": false,
        "inputs": [
            {
                "indexed": false,
                "internalType": "address",
                "name": "underlineContract",
                "type": "address"
            },
            {
                "indexed": false,
                "internalType": "uint256",
                "name": "tokenId",
                "type": "uint256"
            },
            {
                "indexed": true,
                "internalType": "uint256",
                "name": "wrappedTokenId",
                "type": "uint256"
            }
        ],
        "name": "Wrapped",
        "type": "event"
    },
    {
        "inputs": [],
        "name": "MAX_ERC20_COUNT",
        "outputs": [
            {
                "internalType": "uint16",
                "name": "",
                "type": "uint16"
            }
        ],
        "stateMutability": "view",
        "type": "function"
    },
    {
        "inputs": [],
        "name": "MAX_FEE_THRESHOLD_PERCENT",
        "outputs": [
            {
                "internalType": "uint256",
                "name": "",
                "type": "uint256"
            }
        ],
        "stateMutability": "view",
        "type": "function"
    },
    {
        "inputs": [],
        "name": "MAX_ROYALTY_PERCENT",
        "outputs": [
            {
                "internalType": "uint256",
                "name": "",
                "type": "uint256"
            }
        ],
        "stateMutability": "view",
        "type": "function"
    },
    {
        "inputs": [],
        "name": "MAX_SETTINGS_SLOTS",
        "outputs": [
            {
                "internalType": "uint8",
                "name": "",
                "type": "uint8"
            }
        ],
        "stateMutability": "view",
        "type": "function"
    },
    {
        "inputs": [],
        "name": "MAX_TIME_TO_UNWRAP",
        "outputs": [
            {
                "internalType": "uint256",
                "name": "",
                "type": "uint256"
            }
        ],
        "stateMutability": "view",
        "type": "function"
    },
    {
        "inputs": [
            {
                "internalType": "address",
                "name": "_receiver",
                "type": "address"
            },
            {
                "components": [
                    {
                        "internalType": "address",
                        "name": "erc20Token",
                        "type": "address"
                    },
                    {
                        "internalType": "uint256",
                        "name": "amount",
                        "type": "uint256"
                    }
                ],
                "internalType": "struct WrapperWithERC20Collateral.ERC20Collateral",
                "name": "_erc20Collateral",
                "type": "tuple"
            },
            {
                "internalType": "uint256",
                "name": "_unwrapAfter",
                "type": "uint256"
            }
        ],
        "name": "WrapForFarming",
        "outputs": [],
        "stateMutability": "payable",
        "type": "function"
    },
    {
        "inputs": [
            {
                "internalType": "uint256",
                "name": "_wrappedTokenId",
                "type": "uint256"
            },
            {
                "internalType": "address",
                "name": "_erc20",
                "type": "address"
            },
            {
                "internalType": "uint256",
                "name": "_amount",
                "type": "uint256"
            }
        ],
        "name": "addERC20Collateral",
        "outputs": [],
        "stateMutability": "nonpayable",
        "type": "function"
    },
    {
        "inputs": [
            {
                "internalType": "uint256",
                "name": "_wrappedTokenId",
                "type": "uint256"
            }
        ],
        "name": "addNativeCollateral",
        "outputs": [],
        "stateMutability": "payable",
        "type": "function"
    },
    {
        "inputs": [
            {
                "internalType": "address",
                "name": "_erc20",
                "type": "address"
            },
            {
                "internalType": "uint256",
                "name": "_settingsSlotId",
                "type": "uint256"
            },
            {
                "internalType": "uint256",
                "name": "_period",
                "type": "uint256"
            },
            {
                "internalType": "uint256",
                "name": "_percent",
                "type": "uint256"
            }
        ],
        "name": "addRewardSettingsSlot",
        "outputs": [],
        "stateMutability": "nonpayable",
        "type": "function"
    },
    {
        "inputs": [
            {
                "internalType": "address",
                "name": "to",
                "type": "address"
            },
            {
                "internalType": "uint256",
                "name": "tokenId",
                "type": "uint256"
            }
        ],
        "name": "approve",
        "outputs": [],
        "stateMutability": "nonpayable",
        "type": "function"
    },
    {
        "inputs": [
            {
                "internalType": "address",
                "name": "owner",
                "type": "address"
            }
        ],
        "name": "balanceOf",
        "outputs": [
            {
                "internalType": "uint256",
                "name": "",
                "type": "uint256"
            }
        ],
        "stateMutability": "view",
        "type": "function"
    },
    {
        "inputs": [],
        "name": "chargeFeeAfter",
        "outputs": [
            {
                "internalType": "uint256",
                "name": "",
                "type": "uint256"
            }
        ],
        "stateMutability": "view",
        "type": "function"
    },
    {
        "inputs": [
            {
                "internalType": "address",
                "name": "from",
                "type": "address"
            },
            {
                "internalType": "address",
                "name": "to",
                "type": "address"
            },
            {
                "internalType": "uint256",
                "name": "transferFee",
                "type": "uint256"
            },
            {
                "internalType": "uint256",
                "name": "royaltyPercent",
                "type": "uint256"
            },
            {
                "internalType": "address",
                "name": "royaltyBeneficiary",
                "type": "address"
            },
            {
                "internalType": "address",
                "name": "_transferFeeToken",
                "type": "address"
            }
        ],
        "name": "chargeTransferFeeAndRoyalty",
        "outputs": [
            {
                "internalType": "uint256",
                "name": "feeIncrement",
                "type": "uint256"
            }
        ],
        "stateMutability": "nonpayable",
        "type": "function"
    },
    {
        "inputs": [
            {
                "internalType": "address",
                "name": "_contract",
                "type": "address"
            },
            {
                "internalType": "bool",
                "name": "_isCollateral",
                "type": "bool"
            },
            {
                "internalType": "address",
                "name": "_transferFeeModel",
                "type": "address"
            },
            {
                "internalType": "bool",
                "name": "_isBlackListed",
                "type": "bool"
            }
        ],
        "name": "editPartnersItem",
        "outputs": [],
        "stateMutability": "nonpayable",
        "type": "function"
    },
    {
        "inputs": [
            {
                "internalType": "address",
                "name": "_contract",
                "type": "address"
            }
        ],
        "name": "enabledForCollateral",
        "outputs": [
            {
                "internalType": "bool",
                "name": "",
                "type": "bool"
            }
        ],
        "stateMutability": "view",
        "type": "function"
    },
    {
        "inputs": [
            {
                "internalType": "uint256",
                "name": "",
                "type": "uint256"
            },
            {
                "internalType": "uint256",
                "name": "",
                "type": "uint256"
            }
        ],
        "name": "erc20Collateral",
        "outputs": [
            {
                "internalType": "address",
                "name": "erc20Token",
                "type": "address"
            },
            {
                "internalType": "uint256",
                "name": "amount",
                "type": "uint256"
            }
        ],
        "stateMutability": "view",
        "type": "function"
    },
    {
        "inputs": [
            {
                "internalType": "uint256",
                "name": "tokenId",
                "type": "uint256"
            }
        ],
        "name": "getApproved",
        "outputs": [
            {
                "internalType": "address",
                "name": "",
                "type": "address"
            }
        ],
        "stateMutability": "view",
        "type": "function"
    },
    {
        "inputs": [
            {
                "internalType": "uint256",
                "name": "_tokenId",
                "type": "uint256"
            },
            {
                "internalType": "address",
                "name": "_erc20",
                "type": "address"
            }
        ],
        "name": "getAvailableRewardAmount",
        "outputs": [
            {
                "internalType": "uint256",
                "name": "rewardAccrued",
                "type": "uint256"
            }
        ],
        "stateMutability": "view",
        "type": "function"
    },
    {
        "inputs": [
            {
                "internalType": "uint256",
                "name": "_wrappedId",
                "type": "uint256"
            }
        ],
        "name": "getERC20Collateral",
        "outputs": [
            {
                "components": [
                    {
                        "internalType": "address",
                        "name": "erc20Token",
                        "type": "address"
                    },
                    {
                        "internalType": "uint256",
                        "name": "amount",
                        "type": "uint256"
                    }
                ],
                "internalType": "struct WrapperWithERC20Collateral.ERC20Collateral[]",
                "name": "",
                "type": "tuple[]"
            }
        ],
        "stateMutability": "view",
        "type": "function"
    },
    {
        "inputs": [
            {
                "internalType": "uint256",
                "name": "_wrappedId",
                "type": "uint256"
            },
            {
                "internalType": "address",
                "name": "_erc20",
                "type": "address"
            }
        ],
        "name": "getERC20CollateralBalance",
        "outputs": [
            {
                "internalType": "uint256",
                "name": "",
                "type": "uint256"
            }
        ],
        "stateMutability": "view",
        "type": "function"
    },
    {
        "inputs": [
            {
                "internalType": "address",
                "name": "_farmingTokenAddress",
                "type": "address"
            }
        ],
        "name": "getRewardSettings",
        "outputs": [
            {
                "components": [
                    {
                        "internalType": "uint256",
                        "name": "period",
                        "type": "uint256"
                    },
                    {
                        "internalType": "uint256",
                        "name": "rewardPercent",
                        "type": "uint256"
                    }
                ],
                "internalType": "struct WrapperFarming.RewardSettings[]",
                "name": "settings",
                "type": "tuple[]"
            }
        ],
        "stateMutability": "view",
        "type": "function"
    },
    {
        "inputs": [
            {
                "internalType": "uint256",
                "name": "_tokenId",
                "type": "uint256"
            }
        ],
        "name": "getTokenValue",
        "outputs": [
            {
                "internalType": "uint256",
                "name": "",
                "type": "uint256"
            },
            {
                "internalType": "uint256",
                "name": "",
                "type": "uint256"
            }
        ],
        "stateMutability": "view",
        "type": "function"
    },
    {
        "inputs": [
            {
                "internalType": "uint256",
                "name": "_tokenId",
                "type": "uint256"
            }
        ],
        "name": "getWrappedToken",
        "outputs": [
            {
                "components": [
                    {
                        "internalType": "address",
                        "name": "tokenContract",
                        "type": "address"
                    },
                    {
                        "internalType": "uint256",
                        "name": "tokenId",
                        "type": "uint256"
                    },
                    {
                        "internalType": "uint256",
                        "name": "backedValue",
                        "type": "uint256"
                    },
                    {
                        "internalType": "uint256",
                        "name": "backedTokens",
                        "type": "uint256"
                    },
                    {
                        "internalType": "uint256",
                        "name": "unwrapAfter",
                        "type": "uint256"
                    },
                    {
                        "internalType": "uint256",
                        "name": "transferFee",
                        "type": "uint256"
                    },
                    {
                        "internalType": "address",
                        "name": "royaltyBeneficiary",
                        "type": "address"
                    },
                    {
                        "internalType": "uint256",
                        "name": "royaltyPercent",
                        "type": "uint256"
                    },
                    {
                        "internalType": "uint256",
                        "name": "unwraptFeeThreshold",
                        "type": "uint256"
                    },
                    {
                        "internalType": "address",
                        "name": "transferFeeToken",
                        "type": "address"
                    },
                    {
                        "internalType": "enum WrapperBase.AssetType",
                        "name": "asset",
                        "type": "uint8"
                    },
                    {
                        "internalType": "uint256",
                        "name": "balance",
                        "type": "uint256"
                    }
                ],
                "internalType": "struct WrapperBase.NFT",
                "name": "",
                "type": "tuple"
            }
        ],
        "stateMutability": "view",
        "type": "function"
    },
    {
        "inputs": [
            {
                "internalType": "uint256",
                "name": "_wrappedTokenId",
                "type": "uint256"
            },
            {
                "internalType": "address",
                "name": "_erc20",
                "type": "address"
            }
        ],
        "name": "harvest",
        "outputs": [],
        "stateMutability": "nonpayable",
        "type": "function"
    },
    {
        "inputs": [
            {
                "internalType": "address",
                "name": "owner",
                "type": "address"
            },
            {
                "internalType": "address",
                "name": "operator",
                "type": "address"
            }
        ],
        "name": "isApprovedForAll",
        "outputs": [
            {
                "internalType": "bool",
                "name": "",
                "type": "bool"
            }
        ],
        "stateMutability": "view",
        "type": "function"
    },
    {
        "inputs": [
            {
                "internalType": "address",
                "name": "_underlineContract",
                "type": "address"
            },
            {
                "internalType": "bytes4",
                "name": "_interfaceId",
                "type": "bytes4"
            }
        ],
        "name": "isERC721",
        "outputs": [
            {
                "internalType": "bool",
                "name": "",
                "type": "bool"
            }
        ],
        "stateMutability": "view",
        "type": "function"
    },
    {
        "inputs": [],
        "name": "lastWrappedNFTId",
        "outputs": [
            {
                "internalType": "uint256",
                "name": "",
                "type": "uint256"
            }
        ],
        "stateMutability": "view",
        "type": "function"
    },
    {
        "inputs": [],
        "name": "name",
        "outputs": [
            {
                "internalType": "string",
                "name": "",
                "type": "string"
            }
        ],
        "stateMutability": "view",
        "type": "function"
    },
    {
        "inputs": [],
        "name": "owner",
        "outputs": [
            {
                "internalType": "address",
                "name": "",
                "type": "address"
            }
        ],
        "stateMutability": "view",
        "type": "function"
    },
    {
        "inputs": [
            {
                "internalType": "uint256",
                "name": "tokenId",
                "type": "uint256"
            }
        ],
        "name": "ownerOf",
        "outputs": [
            {
                "internalType": "address",
                "name": "",
                "type": "address"
            }
        ],
        "stateMutability": "view",
        "type": "function"
    },
    {
        "inputs": [
            {
                "internalType": "address",
                "name": "",
                "type": "address"
            }
        ],
        "name": "partnersTokenList",
        "outputs": [
            {
                "internalType": "bool",
                "name": "enabledForCollateral",
                "type": "bool"
            },
            {
                "internalType": "address",
                "name": "transferFeeModel",
                "type": "address"
            },
            {
                "internalType": "bool",
                "name": "disabledForWrap",
                "type": "bool"
            }
        ],
        "stateMutability": "view",
        "type": "function"
    },
    {
        "inputs": [],
        "name": "projectToken",
        "outputs": [
            {
                "internalType": "address",
                "name": "",
                "type": "address"
            }
        ],
        "stateMutability": "view",
        "type": "function"
    },
    {
        "inputs": [],
        "name": "protocolFee",
        "outputs": [
            {
                "internalType": "uint256",
                "name": "",
                "type": "uint256"
            }
        ],
        "stateMutability": "view",
        "type": "function"
    },
    {
        "inputs": [],
        "name": "protocolFeeRaised",
        "outputs": [
            {
                "internalType": "uint256",
                "name": "",
                "type": "uint256"
            }
        ],
        "stateMutability": "view",
        "type": "function"
    },
    {
        "inputs": [],
        "name": "protocolFeeToken",
        "outputs": [
            {
                "internalType": "address",
                "name": "",
                "type": "address"
            }
        ],
        "stateMutability": "view",
        "type": "function"
    },
    {
        "inputs": [],
        "name": "renounceOwnership",
        "outputs": [],
        "stateMutability": "nonpayable",
        "type": "function"
    },
    {
        "inputs": [
            {
                "internalType": "address",
                "name": "",
                "type": "address"
            },
            {
                "internalType": "uint256",
                "name": "",
                "type": "uint256"
            }
        ],
        "name": "rewardSettings",
        "outputs": [
            {
                "internalType": "uint256",
                "name": "period",
                "type": "uint256"
            },
            {
                "internalType": "uint256",
                "name": "rewardPercent",
                "type": "uint256"
            }
        ],
        "stateMutability": "view",
        "type": "function"
    },
    {
        "inputs": [
            {
                "internalType": "uint256",
                "name": "",
                "type": "uint256"
            }
        ],
        "name": "rewards",
        "outputs": [
            {
                "internalType": "uint256",
                "name": "stakedDate",
                "type": "uint256"
            },
            {
                "internalType": "uint256",
                "name": "harvestedAmount",
                "type": "uint256"
            }
        ],
        "stateMutability": "view",
        "type": "function"
    },
    {
        "inputs": [
            {
                "internalType": "address",
                "name": "from",
                "type": "address"
            },
            {
                "internalType": "address",
                "name": "to",
                "type": "address"
            },
            {
                "internalType": "uint256",
                "name": "tokenId",
                "type": "uint256"
            }
        ],
        "name": "safeTransferFrom",
        "outputs": [],
        "stateMutability": "nonpayable",
        "type": "function"
    },
    {
        "inputs": [
            {
                "internalType": "address",
                "name": "from",
                "type": "address"
            },
            {
                "internalType": "address",
                "name": "to",
                "type": "address"
            },
            {
                "internalType": "uint256",
                "name": "tokenId",
                "type": "uint256"
            },
            {
                "internalType": "bytes",
                "name": "_data",
                "type": "bytes"
            }
        ],
        "name": "safeTransferFrom",
        "outputs": [],
        "stateMutability": "nonpayable",
        "type": "function"
    },
    {
        "inputs": [
            {
                "internalType": "address",
                "name": "operator",
                "type": "address"
            },
            {
                "internalType": "bool",
                "name": "approved",
                "type": "bool"
            }
        ],
        "name": "setApprovalForAll",
        "outputs": [],
        "stateMutability": "nonpayable",
        "type": "function"
    },
    {
        "inputs": [
            {
                "internalType": "address",
                "name": "_erc20",
                "type": "address"
            },
            {
                "internalType": "bool",
                "name": "_isEnabled",
                "type": "bool"
            }
        ],
        "name": "setCollateralStatus",
        "outputs": [],
        "stateMutability": "nonpayable",
        "type": "function"
    },
    {
        "inputs": [
            {
                "internalType": "uint256",
                "name": "_fee",
                "type": "uint256"
            },
            {
                "internalType": "uint256",
                "name": "_startDate",
                "type": "uint256"
            },
            {
                "internalType": "address",
                "name": "_protocolFeeToken",
                "type": "address"
            }
        ],
        "name": "setFee",
        "outputs": [],
        "stateMutability": "nonpayable",
        "type": "function"
    },
    {
        "inputs": [
            {
                "internalType": "uint16",
                "name": "_count",
                "type": "uint16"
            }
        ],
        "name": "setMaxERC20CollateralCount",
        "outputs": [],
        "stateMutability": "nonpayable",
        "type": "function"
    },
    {
        "inputs": [
            {
                "internalType": "address",
                "name": "_erc20",
                "type": "address"
            },
            {
                "internalType": "uint256",
                "name": "_settingsSlotId",
                "type": "uint256"
            },
            {
                "internalType": "uint256",
                "name": "_period",
                "type": "uint256"
            },
            {
                "internalType": "uint256",
                "name": "_percent",
                "type": "uint256"
            }
        ],
        "name": "setRewardSettings",
        "outputs": [],
        "stateMutability": "nonpayable",
        "type": "function"
    },
    {
        "inputs": [
            {
                "internalType": "bytes4",
                "name": "interfaceId",
                "type": "bytes4"
            }
        ],
        "name": "supportsInterface",
        "outputs": [
            {
                "internalType": "bool",
                "name": "",
                "type": "bool"
            }
        ],
        "stateMutability": "view",
        "type": "function"
    },
    {
        "inputs": [],
        "name": "symbol",
        "outputs": [
            {
                "internalType": "string",
                "name": "",
                "type": "string"
            }
        ],
        "stateMutability": "view",
        "type": "function"
    },
    {
        "inputs": [
            {
                "internalType": "uint256",
                "name": "index",
                "type": "uint256"
            }
        ],
        "name": "tokenByIndex",
        "outputs": [
            {
                "internalType": "uint256",
                "name": "",
                "type": "uint256"
            }
        ],
        "stateMutability": "view",
        "type": "function"
    },
    {
        "inputs": [
            {
                "internalType": "address",
                "name": "owner",
                "type": "address"
            },
            {
                "internalType": "uint256",
                "name": "index",
                "type": "uint256"
            }
        ],
        "name": "tokenOfOwnerByIndex",
        "outputs": [
            {
                "internalType": "uint256",
                "name": "",
                "type": "uint256"
            }
        ],
        "stateMutability": "view",
        "type": "function"
    },
    {
        "inputs": [
            {
                "internalType": "uint256",
                "name": "_tokenId",
                "type": "uint256"
            }
        ],
        "name": "tokenURI",
        "outputs": [
            {
                "internalType": "string",
                "name": "",
                "type": "string"
            }
        ],
        "stateMutability": "view",
        "type": "function"
    },
    {
        "inputs": [],
        "name": "totalSupply",
        "outputs": [
            {
                "internalType": "uint256",
                "name": "",
                "type": "uint256"
            }
        ],
        "stateMutability": "view",
        "type": "function"
    },
    {
        "inputs": [
            {
                "internalType": "address",
                "name": "from",
                "type": "address"
            },
            {
                "internalType": "address",
                "name": "to",
                "type": "address"
            },
            {
                "internalType": "uint256",
                "name": "tokenId",
                "type": "uint256"
            }
        ],
        "name": "transferFrom",
        "outputs": [],
        "stateMutability": "nonpayable",
        "type": "function"
    },
    {
        "inputs": [
            {
                "internalType": "address",
                "name": "newOwner",
                "type": "address"
            }
        ],
        "name": "transferOwnership",
        "outputs": [],
        "stateMutability": "nonpayable",
        "type": "function"
    },
    {
        "inputs": [
            {
                "internalType": "uint256",
                "name": "_tokenId",
                "type": "uint256"
            }
        ],
        "name": "unWrap721",
        "outputs": [],
        "stateMutability": "nonpayable",
        "type": "function"
    },
    {
        "inputs": [
            {
                "internalType": "address",
                "name": "_underlineContract",
                "type": "address"
            },
            {
                "internalType": "uint256",
                "name": "_tokenId",
                "type": "uint256"
            },
            {
                "internalType": "uint256",
                "name": "_unwrapAfter",
                "type": "uint256"
            },
            {
                "internalType": "uint256",
                "name": "_transferFee",
                "type": "uint256"
            },
            {
                "internalType": "address",
                "name": "_royaltyBeneficiary",
                "type": "address"
            },
            {
                "internalType": "uint256",
                "name": "_royaltyPercent",
                "type": "uint256"
            },
            {
                "internalType": "uint256",
                "name": "_unwraptFeeThreshold",
                "type": "uint256"
            },
            {
                "internalType": "address",
                "name": "_transferFeeToken",
                "type": "address"
            }
        ],
        "name": "wrap721",
        "outputs": [
            {
                "internalType": "uint256",
                "name": "",
                "type": "uint256"
            }
        ],
        "stateMutability": "payable",
        "type": "function"
    },
    {
        "inputs": [
            {
                "internalType": "uint256",
                "name": "",
                "type": "uint256"
            }
        ],
        "name": "wrappedTokens",
        "outputs": [
            {
                "internalType": "address",
                "name": "tokenContract",
                "type": "address"
            },
            {
                "internalType": "uint256",
                "name": "tokenId",
                "type": "uint256"
            },
            {
                "internalType": "uint256",
                "name": "backedValue",
                "type": "uint256"
            },
            {
                "internalType": "uint256",
                "name": "backedTokens",
                "type": "uint256"
            },
            {
                "internalType": "uint256",
                "name": "unwrapAfter",
                "type": "uint256"
            },
            {
                "internalType": "uint256",
                "name": "transferFee",
                "type": "uint256"
            },
            {
                "internalType": "address",
                "name": "royaltyBeneficiary",
                "type": "address"
            },
            {
                "internalType": "uint256",
                "name": "royaltyPercent",
                "type": "uint256"
            },
            {
                "internalType": "uint256",
                "name": "unwraptFeeThreshold",
                "type": "uint256"
            },
            {
                "internalType": "address",
                "name": "transferFeeToken",
                "type": "address"
            },
            {
                "internalType": "enum WrapperBase.AssetType",
                "name": "asset",
                "type": "uint8"
            },
            {
                "internalType": "uint256",
                "name": "balance",
                "type": "uint256"
            }
        ],
        "stateMutability": "view",
        "type": "function"
    }
]